…
dim(imp_5)
n_miss(imp_5)
```

## Run Model 2 on each imputed data frame

```{r}
#| echo: true
m2_mods <- with(fram_mice24, lm(inv_sbp ~ glucose + obese))
```

```
> summary(m2_mods)
# A tibble: 45 × 6
   term        estimate std.error statistic  p.value  nobs
   <chr>          <dbl>     <dbl>     <dbl>    <dbl> <int>
 1 (Intercept)  8.30     0.0623      133.   0         4238
 2 glucose     -0.00571  0.000728     -7.84 5.77e-15  4238
 3 obese       -0.709    0.0525      -13.5  1.27e-40  4238
 4 (Intercept)  8.31     0.0626      133.   0         4238
 5 glucose     -0.00583  0.000733     -7.95 2.45e-15  4238
 6 obese       -0.708    0.0526      -13.5  1.50e-40  4238
# ... with 39 more rows
```
…
